/Users/vladimir/IdeaProjects/JAVA_ENTERPRISE/BigHW/CatsService/src/main/java/ru/itis/amqp/CatsRequestsReceiver.java
/Users/vladimir/IdeaProjects/JAVA_ENTERPRISE/BigHW/CatsService/src/main/java/ru/itis/controllers/CatsController.java
/Users/vladimir/IdeaProjects/JAVA_ENTERPRISE/BigHW/CatsService/src/main/java/ru/itis/dto/CatResponseDto.java
/Users/vladimir/IdeaProjects/JAVA_ENTERPRISE/BigHW/CatsService/src/main/java/ru/itis/dto/CatDto.java
/Users/vladimir/IdeaProjects/JAVA_ENTERPRISE/BigHW/CatsService/src/main/java/ru/itis/app/Application.java
/Users/vladimir/IdeaProjects/JAVA_ENTERPRISE/BigHW/CatsService/src/main/java/ru/itis/amqp/CatsProducer.java
/Users/vladimir/IdeaProjects/JAVA_ENTERPRISE/BigHW/CatsService/src/main/java/ru/itis/dto/CatRequestDto.java
/Users/vladimir/IdeaProjects/JAVA_ENTERPRISE/BigHW/CatsService/src/main/java/ru/itis/amqp/Config.java
/Users/vladimir/IdeaProjects/JAVA_ENTERPRISE/BigHW/CatsService/src/main/java/ru/itis/services/CatsService.java
