ru/itis/repositories/UserRepository.class
ru/itis/app/Application.class
ru/itis/models/User$UserBuilder.class
ru/itis/amqp/Config.class
ru/itis/models/User.class
ru/itis/controllers/UserController.class
ru/itis/services/UserService.class
ru/itis/amqp/RegistartionRequestsReceiver.class
